<svg viewBox="0 0 115 115" width="100%" xmlns="http://www.w3.org/2000/svg">
  <path d="m1.22 15.02 1.41.21c3.74.49 4.52 1.76 4.59 7.76v27.74c-.07 6-.85 7.27-4.59 7.76l-1.41.21v2.19h19.05v-2.19l-1.41-.21c-3.74-.5-4.51-1.77-4.58-7.76v-27.73c.07-6 .85-7.27 4.59-7.76l1.41-.21v-2.19h-19.06z"/>
  <path d="m71.21 9.69h-1.42l-.47 1.42c-2.21-1.34-4.45-1.93-7.45-1.93-2.6 0-4.69.63-6.31 1.89-1.7 1.34-2.72 3.27-2.72 5.17 0 1.54.67 3.19 1.74 4.26 1.22 1.22 3.31 2.17 6.39 2.96l5.28 1.34c3.9.95 5.24 2.13 5.24 4.5 0 3.35-3.08 5.88-7.1 5.88-1.97 0-4.02-.63-5.84-1.74-2.29-1.46-3.86-3.27-5.48-6.39l-1.46.47 2.56 9.03h1.46l.75-1.97c2.41 1.7 4.97 2.48 8.16 2.48 6.15 0 10.96-3.71 10.96-8.48 0-1.46-.35-2.88-.95-3.83-1.18-1.89-3.15-2.96-7.41-3.98l-4.93-1.18c-3.83-.95-5.36-2.17-5.36-4.3 0-2.37 2.52-4.22 5.76-4.22 3.83 0 6.98 2.01 9.74 6.23l1.26-.47z" stroke-width=".15" transform="scale(1.4 .72)"/>
  <path d="m93.41 37.18c-6.88 0-12.32 5.3-12.32 12.01 0 6.91 5.27 12.18 12.18 12.18 3.76 0 7.46-1.71 9.72-4.48 1.68-2.05 2.53-4.62 2.53-7.53 0-7.05-5.1-12.18-12.11-12.18zm-.07 1.64c5 0 8.14 4.14 8.14 10.74 0 6.19-3.22 10.16-8.18 10.16-5 0-8.18-4.07-8.18-10.51 0-6.3 3.25-10.4 8.21-10.4z" stroke-width=".13" transform="scale(1.02 .98)"/>
  <path d="m47.52 77.27h-28.1l-2.71 8.46 1.55.63c2.9-5.03 6.19-7.26 10.69-7.26 1.6 0 2.13.48 2.13 1.93v22.2c-.05 4.01-.68 5.08-3.19 5.32l-1.84.15v1.5h14.9v-1.5l-1.89-.15c-2.52-.29-3.14-1.31-3.14-5.32v-22c0-1.69.39-2.13 1.93-2.13 4.3 0 7.98 2.47 10.64 7.26l1.74-.63z" stroke-width=".18" transform="scale(1.46 .69)"/>
  <path d="m57.63 31.7-1.36-.57c-2.63 5.51-6.87 7.66-15.14 7.66-2.06 0-3.2-.09-5.6-.35l20.48-25.95-.48-1.62h-21.67l-3.2 7.92 1.44.53c3.59-4.95 6.83-6.61 12.78-6.61 1.97 0 3.02.09 5.08.53l-20.61 26.09.83 1.36h24.29z" stroke-width=".19" transform="matrix(1.01 -.01 .01 .99 0 0)"/>
  <path d="m42.29 100.41-1.56-.72c-2.56 3.62-3.95 5.18-6.12 6.79-3.17 2.39-6.85 3.73-10.24 3.73-1.84 0-3.45-.56-4.12-1.39-.45-.56-.67-1.67-.67-3.34v-23.05c.06-4.67.72-5.79 3.62-6.12l1.78-.17v-1.72h-15.97v1.73l1.39.17c2.89.33 3.56 1.45 3.62 6.12v21.87c-.06 4.67-.72 5.79-3.62 6.12l-1.39.17v1.73h28.83z" stroke-width=".21" transform="scale(1.04 .96)"/>
  <path d="m71.91 72.04 1.37.16c2.85.33 3.51 1.42 3.56 6.03v12.38c0 6.9-.38 9.53-1.75 11.72s-4.05 3.4-7.45 3.4c-2.68 0-4.71-.71-6.3-2.25-1.04-.99-1.59-2.08-1.59-3.12 0-.88.27-1.42 1.1-2.19.99-.88 1.37-1.64 1.37-2.63 0-1.81-1.21-2.96-3.01-2.96-2.52 0-4.27 2.03-4.27 4.88 0 3.12 1.92 6.52 4.88 8.49 2.3 1.53 5.53 2.41 8.88 2.41 4.93 0 9.53-1.92 11.72-4.88 1.59-2.08 1.92-3.94 1.92-10.08v-15.17c.05-4.6.71-5.7 3.56-6.03l1.37-.16v-1.7h-15.36z" stroke-width=".21" transform="scale(1.01 .99)"/>
  <g stroke="#000" fill="#999" fill-opacity=".6" transform="translate(-7.63 -1.95)">
    <path d="m14.75 14.31c4.81-2.32 9.72-1.04 9.36 5.33 3.08 6.03-7.76 4.44-10.06 5.07-.21-3.48-.3-7.02.71-10.39z" stroke-width=".28"/>
    <path d="m13.67 27.52c4.46-2.34 11.7-4.42 10 3.54 2.16 7.41-5.56 5.15-10.16 5.16-1.05-1.99-.17-6.16.16-8.7z" stroke-width=".27"/>
    <path d="m14.03 38.1c4.67.5 12.08-.45 9.35 5.7-.21 3.29.56 7.94-5.12 6.2-4.08.37-7.26.13-5.26-3.9.46-2.64-1.63-5.93 1.04-8z" stroke-width=".25"/>
    <path d="m14.03 52.26c4.67-.14 12.22-1.39 9.58 6.41.17 2.83.99 6.49-2.95 4.32-4.15-.16-9.02-.42-7.11-6.31.08-1.48.23-2.96.48-4.42z" stroke-width=".25"/>
    <path d="m33.2 15.65c1.06 3.22-2.93 7.99-.85 9.92 4.62-.24 12 1.42 14.77-1.28.59-3.62 1.02-11.41-3.33-11.71-3.51 1.11-7.31 1.3-10.6 3.07z" stroke-width=".28"/>
    <path d="m47.96 13.45c4.2 1.76 17.38-4.29 13.11 3.91-2.98 3.09-1.54 9.8-3.21 11.5-4.41-1.39-12.41.09-8.27-6.21 1.17-3.39-1.59-5.98-1.63-9.2z" stroke-width=".28"/>
    <path d="m44.62 28.55c4.1 1.54 14.74-.51 9.48 6.56-1.92 3.54-1.68 10-7.22 6.1-3.96-.89-10.62-1.9-5.43-6.78 1.4-1.82 1.59-4.18 3.17-5.88z" stroke-width=".28"/>
    <path d="m59.83 30.75c-1.12 3.29-8.8 12.22-1.81 11.84 4.04-1.24 10.03.91 12.5-.15-2.15-4.03 5.85-14.47-3.56-11.98-2.39.43-4.81-.8-7.13.29z" stroke-width=".28"/>
    <path d="m86.57 42.26c.57 3.51-1.37 13.44 4.27 7.82 3.86-1.71 11.46.89 9.59-6.64-.3-4.37-.79-9.27-5.72-5.28-2.72 1.41-5.92 1.71-8.13 4.1z" stroke-width=".25"/>
    <path d="m101.98 38.82c1.11 3.25-.07 8.98 2.61 10.54 3.99-1.65 9.62-.36 12.66-1.8-.72-3.49-2.45-8.76-4.19-10.77-3.7.37-7.88-.21-11.08 2.02z" stroke-width=".22"/>
    <path d="m87.69 52.66c.8 3.6-.87 11.31 4.08 10.97 3.39-1.44 11.97 1.22 10.43-4.71-.13-4.78-.54-11.99-6.76-8.01-2.52.8-5.07 1.8-7.74 1.74z" stroke-width=".25"/>
    <path d="m104.11 50.32c.05 4.08.05 8.21.32 12.3 4.71-.42 9.53-2.33 14.29-1.09 2.08-2.25-1.88-8.24-2.03-11.82-3.92-1.54-8.46 1.71-12.58.6z" stroke-width=".23"/>
    <path d="m34.84 53.39c-.2 3.99-3.75 13.51 3.44 10.91 4.54.69 10.86 1.98 9-5.24.08-3.67.69-8.51-4.29-6.21-2.7.31-5.43 1.34-8.15.54z" stroke-width=".25"/>
    <path d="m49.48 53c.73 3.79-2.74 12.87 3.55 11.17 3.28-1.5 10.79 2.68 8.93-3.62-.09-3.07.27-10.64-4.16-8.63-2.63 1.65-5.53.5-8.32 1.08z" stroke-width=".22"/>
    <path d="m62.32 51.75c2.74 3.11.48 9.01 2.97 11.61 3.97-.26 7.9.11 11.67 1.52 1-4.04.36-9.59-.34-12.71-4.44.27-8.98-1.24-13.28.28l-.52-.35z" stroke-width=".23"/>
    <path d="m49.27 66.64c1.74 3.69-3.28 13.81 3.8 10.99 4.28-.57 12.61 2.53 9.62-5.26-.38-2.86 1.22-8.34-3.6-6.13-3.19.48-7.03-1.47-9.82.4z" stroke-width=".25"/>
    <path d="m17.31 76.09c1.33 3.02 1.15 9.88 4.13 10.44 2.75-3.38 9.63-3.12 10.72-6.65-2.94-3.2-2.82-12.44-8.44-7.61-2.34.9-4.23 2.64-6.42 3.83z" stroke-width=".25"/>
    <path d="m18.74 88.03c2.27 3.96-1.16 13.72 6.23 9.8 3.58-1.62 11.19-.23 7.55-6.36-1.26-3.32-.34-11.28-5.35-6.43-2.55 1.61-5.3 3.54-8.43 2.99z" stroke-width=".25"/>
    <path d="m21.12 99.7c.16 3.71-3.23 12.79 2.29 12.17 3.65-1.03 12.28 2.71 10.71-4.25-1.34-3.91.76-10.9-5.41-8.62-2.53.18-5.07.41-7.59.71z" stroke-width=".25"/>
    <path d="m35.07 98.5c1.73 4.47.43 10.56 1.9 14.25 4-.66 9.99 1.49 12.9-.16-1.04-4.23.59-12.18-2.44-14.26-4.13-.46-8.4.85-12.37.16z" stroke-width=".25"/>
    <path d="m84.26 71.85c-1.09 2.73-5.68 10.41-.25 8.96 3.77-.57 9.38 4.99 9.2-2.46.51-3.37 3.06-9.85-2.25-7.98-2.17.25-5.25-.92-6.7 1.49z" stroke-width=".23"/>
    <path d="m82.42 82.46c-1.49 3.37-1.38 8.89-1.22 11.54 3.86-.57 9.12 2.83 11.83 1.05-.85-3.72 1.76-12.4-3.47-11.28-2.4-.17-4.85-.34-7.14-1.31z" stroke-width=".21"/>
    <path d="m79.71 96.49c-.54 4.02.59 8.03.05 12.05 4.25.46 8.6-.41 12.9-.17 3.74-1.18.17-7.89.26-11.04-4.33-.53-8.85-2.31-13.2-.84z" stroke-width=".21"/>
    <path d="m64.86 97.36c.64 3.42-2.5 9.34.57 11.17 3.6-1.45 9.68.67 12.02-1.39.72-3.81-.79-7.53-.67-11.32-3.55 1.28-8.22-.29-11.92 1.54z" stroke-width=".19"/>
    <path d="m86.16 8.42c.41 4.13-.92 14.01 5.6 9.41 4.33-.8 10.26 1.17 8.35-5.73.44-4.94-1.35-8.64-6.18-5.42-2.49 1.15-5.33.52-7.77 1.73z" stroke-width=".25"/>
    <path d="m101.94 5.63c-.33 4.61-1.83 13.36 4.77 10.29 3.3-.88 9.59 2.28 7.45-4.33.19-4.99-.52-10.1-6.15-7.71-2.09.25-4.15.81-6.08 1.75z" stroke-width=".24"/>
    <path d="m87.64 20.61c.62 4.27-.21 12.43 6.15 9.76 5.35-.16 11.17-2.6 7.78-9.13-1.19-6.77-8.91.1-13.19-.72z" stroke-width=".25"/>
    <path d="m75.14 21.88c-1.1 4.47-1.44 11.81 4.62 10.11 5.06.53 7.91-2.2 6.25-7.63.66-6.81-7.38-3.18-10.87-2.48z" stroke-width=".22"/>
  </g>
</svg>
